Final Project
…
Final Project

Guglielmo Tornesi

5/4/2022

Final Project Data Wrangling Report

Scraping and dataset creation

We selected the following url: https://www.basketball-reference.com/leagues/NBA_2022_per_game.html for our data source, which we scraped with the rvest library. The dataset contains per game statistics about each player. After reading the html page and its table, we rendered the data as a tibble.

## # A tibble: 842 x 30
##    Rk    Player Pos   Age   Tm    G     GS    MP    FG    FGA   `FG%` `3P` 
##    <chr> <chr>  <chr> <chr> <chr> <chr> <chr> <chr> <chr> <chr> <chr> <chr>
##  1 1     Preci~ C     22    TOR   73    28    23.6  3.6   8.3   .439  0.8  
##  2 2     Steve~ C     28    MEM   76    75    26.3  2.8   5.1   .547  0.0  
##  3 3     Bam A~ C     24    MIA   56    56    32.6  7.3   13.0  .557  0.0  
##  4 4     Santi~ PF    21    MEM   32    0     11.3  1.7   4.1   .402  0.2  
##  5 5     LaMar~ C     36    BRK   47    12    22.3  5.4   9.7   .550  0.3  
##  6 6     Nicke~ SG    23    TOT   65    21    22.6  3.9   10.5  .372  1.6  
##  7 6     Nicke~ SG    23    NOP   50    19    26.3  4.7   12.6  .375  1.9  
##  8 6     Nicke~ SG    23    UTA   15    2     9.9   1.1   3.2   .333  0.7  
##  9 7     Grays~ SG    26    MIL   66    61    27.3  3.9   8.6   .448  2.4  
## 10 8     Jarre~ C     23    CLE   56    56    32.3  6.6   9.7   .677  0.0  
## # ... with 832 more rows, and 18 more variables: `3PA` <chr>, `3P%` <chr>,
## #   `2P` <chr>, `2PA` <chr>, `2P%` <chr>, `eFG%` <chr>, FT <chr>, FTA <chr>,
## #   `FT%` <chr>, ORB <chr>, DRB <chr>, TRB <chr>, AST <chr>, STL <chr>,
## #   BLK <chr>, TOV <chr>, PF <chr>, PTS <chr>
…
Final dataset

## # A tibble: 812 x 30
##    Rk    Player Pos     Age Tm        G    GS    MP    FG   FGA `FG%`  `3P`
##    <chr> <chr>  <chr> <dbl> <chr> <dbl> <dbl> <dbl> <dbl> <dbl> <dbl> <dbl>
##  1 1     Preci~ C        22 TOR      73    28  23.6   3.6   8.3 0.439   0.8
##  2 2     Steve~ C        28 MEM      76    75  26.3   2.8   5.1 0.547   0  
##  3 3     Bam A~ C        24 MIA      56    56  32.6   7.3  13   0.557   0  
##  4 4     Santi~ PF       21 MEM      32     0  11.3   1.7   4.1 0.402   0.2
##  5 5     LaMar~ C        36 BRK      47    12  22.3   5.4   9.7 0.55    0.3
##  6 6     Nicke~ SG       23 TOT      65    21  22.6   3.9  10.5 0.372   1.6
##  7 6     Nicke~ SG       23 NOP      50    19  26.3   4.7  12.6 0.375   1.9
##  8 6     Nicke~ SG       23 UTA      15     2   9.9   1.1   3.2 0.333   0.7
##  9 7     Grays~ SG       26 MIL      66    61  27.3   3.9   8.6 0.448   2.4
## 10 8     Jarre~ C        23 CLE      56    56  32.3   6.6   9.7 0.677   0  
## # ... with 802 more rows, and 18 more variables: `3PA` <dbl>, `3P%` <dbl>,
## #   `2P` <dbl>, `2PA` <dbl>, `2P%` <dbl>, `eFG%` <dbl>, FT <dbl>, FTA <dbl>,
## #   `FT%` <dbl>, ORB <dbl>, DRB <dbl>, TRB <dbl>, AST <dbl>, STL <dbl>,
## #   BLK <dbl>, TOV <dbl>, PF <dbl>, PTS <dbl>
…
